{
    "photos": {
        "page": 1,
        "pages": 237,
        "perpage": 20,
        "total": "4730",
        "photo": [
            {
                "id": "48304420787",
                "owner": "49191827@N00",
                "secret": "2796f5d72c",
                "server": "65535",
                "farm": 66,
                "title": "motel \/ route 66. mojave desert, ca. 2014",
                "ispublic": 1,
                "isfriend": 0,
                "isfamily": 0,
                "count_faves": "80",
                "count_comments": "5",
                "url_n": "https:\/\/live.staticflickr.com\/65535\/48304420787_2796f5d72c_n.jpg",
                "height_n": 320,
                "width_n": "320"
            },
            {
                "id": "48294642212",
                "owner": "49191827@N00",
                "secret": "dcf1be876e",
                "server": "65535",
                "farm": 66,
                "title": "first responder. gold point, nv. 2016.",
                "ispublic": 1,
                "isfriend": 0,
                "isfamily": 0,
                "count_faves": "83",
                "count_comments": "0",
                "url_n": "https:\/\/live.staticflickr.com\/65535\/48294642212_dcf1be876e_n.jpg",
                "height_n": 320,
                "width_n": "320"
            },
            {
                "id": "48285503736",
                "owner": "49191827@N00",
                "secret": "7c6c8e82b2",
                "server": "65535",
                "farm": 66,
                "title": "well's fine cars. selma, ca. 2014.",
                "ispublic": 1,
                "isfriend": 0,
                "isfamily": 0,
                "count_faves": "82",
                "count_comments": "2",
                "url_n": "https:\/\/live.staticflickr.com\/65535\/48285503736_7c6c8e82b2_n.jpg",
                "height_n": 320,
                "width_n": "320"
            },
            {
                "id": "48276512542",
                "owner": "49191827@N00",
                "secret": "e02e1c378e",
                "server": "65535",
                "farm": 66,
                "title": "panorama. meteor crater, az. 2007.",
                "ispublic": 1,
                "isfriend": 0,
                "isfamily": 0,
                "count_faves": "72",
                "count_comments": "6",
                "url_n": "https:\/\/live.staticflickr.com\/65535\/48276512542_e02e1c378e_n.jpg",
                "height_n": 113,
                "width_n": "320"
            },
            {
                "id": "48261154901",
                "owner": "49191827@N00",
                "secret": "7b6f81b145",
                "server": "65535",
                "farm": 66,
                "title": "giant dipper (xpro). santa cruz, ca. 2018.",
                "ispublic": 1,
                "isfriend": 0,
                "isfamily": 0,
                "count_faves": "56",
                "count_comments": "2",
                "url_n": "https:\/\/live.staticflickr.com\/65535\/48261154901_7b6f81b145_n.jpg",
                "height_n": 320,
                "width_n": "320"
            },
            {
                "id": "48245256687",
                "owner": "49191827@N00",
                "secret": "0eb5b9c4ea",
                "server": "65535",
                "farm": 66,
                "title": "1972 the best. carrara, nv. 2016.",
                "ispublic": 1,
                "isfriend": 0,
                "isfamily": 0,
                "count_faves": "42",
                "count_comments": "0",
                "url_n": "https:\/\/live.staticflickr.com\/65535\/48245256687_0eb5b9c4ea_n.jpg",
                "height_n": 320,
                "width_n": "320"
            },
            {
                "id": "48236343967",
                "owner": "49191827@N00",
                "secret": "a04b1b9670",
                "server": "65535",
                "farm": 66,
                "title": "the pope of broadway. los angeles, ca. 2005.",
                "ispublic": 1,
                "isfriend": 0,
                "isfamily": 0,
                "count_faves": "72",
                "count_comments": "6",
                "url_n": "https:\/\/live.staticflickr.com\/65535\/48236343967_a04b1b9670_n.jpg",
                "height_n": 240,
                "width_n": "320"
            },
            {
                "id": "48226501636",
                "owner": "49191827@N00",
                "secret": "b55abc5979",
                "server": "65535",
                "farm": 66,
                "title": "vanishing point. vernon, ca. 2014.",
                "ispublic": 1,
                "isfriend": 0,
                "isfamily": 0,
                "count_faves": "79",
                "count_comments": "7",
                "url_n": "https:\/\/live.staticflickr.com\/65535\/48226501636_b55abc5979_n.jpg",
                "height_n": 320,
                "width_n": "320"
            },
            {
                "id": "48216861501",
                "owner": "49191827@N00",
                "secret": "6930ee52e1",
                "server": "65535",
                "farm": 66,
                "title": "ghost sign. trona, ca. 2018.",
                "ispublic": 1,
                "isfriend": 0,
                "isfamily": 0,
                "count_faves": "116",
                "count_comments": "10",
                "url_n": "https:\/\/live.staticflickr.com\/65535\/48216861501_6930ee52e1_n.jpg",
                "height_n": 320,
                "width_n": "320"
            },
            {
                "id": "48201356942",
                "owner": "49191827@N00",
                "secret": "185cb1c164",
                "server": "65535",
                "farm": 66,
                "title": "courtesy \/ prcssd. phoenix, az. 2007.",
                "ispublic": 1,
                "isfriend": 0,
                "isfamily": 0,
                "count_faves": "77",
                "count_comments": "4",
                "url_n": "https:\/\/live.staticflickr.com\/65535\/48201356942_185cb1c164_n.jpg",
                "height_n": 320,
                "width_n": "320"
            },
            {
                "id": "48184406302",
                "owner": "49191827@N00",
                "secret": "bdef2f88a8",
                "server": "65535",
                "farm": 66,
                "title": "eat. mojave desert, ca. 2016.",
                "ispublic": 1,
                "isfriend": 0,
                "isfamily": 0,
                "count_faves": "113",
                "count_comments": "9",
                "url_n": "https:\/\/live.staticflickr.com\/65535\/48184406302_bdef2f88a8_n.jpg",
                "height_n": 320,
                "width_n": "320"
            },
            {
                "id": "48175232857",
                "owner": "49191827@N00",
                "secret": "5f68719661",
                "server": "65535",
                "farm": 66,
                "title": "ready mixed. 2015.",
                "ispublic": 1,
                "isfriend": 0,
                "isfamily": 0,
                "count_faves": "72",
                "count_comments": "2",
                "url_n": "https:\/\/live.staticflickr.com\/65535\/48175232857_5f68719661_n.jpg",
                "height_n": 320,
                "width_n": "320"
            },
            {
                "id": "48155688542",
                "owner": "49191827@N00",
                "secret": "ba7d572bf0",
                "server": "65535",
                "farm": 66,
                "title": "sixth street bridge pano. los angeles, ca. 2005.",
                "ispublic": 1,
                "isfriend": 0,
                "isfamily": 0,
                "count_faves": "58",
                "count_comments": "9",
                "url_n": "https:\/\/live.staticflickr.com\/65535\/48155688542_ba7d572bf0_n.jpg",
                "height_n": 120,
                "width_n": "320"
            },
            {
                "id": "48140615443",
                "owner": "49191827@N00",
                "secret": "31c53110f8",
                "server": "65535",
                "farm": 66,
                "title": "abandoned drive-in. parker, az. 2018.",
                "ispublic": 1,
                "isfriend": 0,
                "isfamily": 0,
                "count_faves": "124",
                "count_comments": "6",
                "url_n": "https:\/\/live.staticflickr.com\/65535\/48140615443_31c53110f8_n.jpg",
                "height_n": 213,
                "width_n": "320"
            },
            {
                "id": "48135383693",
                "owner": "49191827@N00",
                "secret": "6d4326dc05",
                "server": "65535",
                "farm": 66,
                "title": "there will be blood. missouri triangle, ca. 2013.",
                "ispublic": 1,
                "isfriend": 0,
                "isfamily": 0,
                "count_faves": "92",
                "count_comments": "6",
                "url_n": "https:\/\/live.staticflickr.com\/65535\/48135383693_6d4326dc05_n.jpg",
                "height_n": 107,
                "width_n": "320"
            },
            {
                "id": "48129324367",
                "owner": "49191827@N00",
                "secret": "44483e985f",
                "server": "65535",
                "farm": 66,
                "title": "ave 26 (lomo xpro). venice beach, ca. 2018.",
                "ispublic": 1,
                "isfriend": 0,
                "isfamily": 0,
                "count_faves": "35",
                "count_comments": "0",
                "url_n": "https:\/\/live.staticflickr.com\/65535\/48129324367_44483e985f_n.jpg",
                "height_n": 320,
                "width_n": "320"
            },
            {
                "id": "48123673123",
                "owner": "49191827@N00",
                "secret": "8ff0449a3d",
                "server": "65535",
                "farm": 66,
                "title": "deadfall. mojave desert, ca. 2018.",
                "ispublic": 1,
                "isfriend": 0,
                "isfamily": 0,
                "count_faves": "66",
                "count_comments": "3",
                "url_n": "https:\/\/live.staticflickr.com\/65535\/48123673123_8ff0449a3d_n.jpg",
                "height_n": 320,
                "width_n": "320"
            },
            {
                "id": "48117182557",
                "owner": "49191827@N00",
                "secret": "5a05f932b9",
                "server": "65535",
                "farm": 66,
                "title": "welcome to searles valley. trona, ca. 2018.",
                "ispublic": 1,
                "isfriend": 0,
                "isfamily": 0,
                "count_faves": "103",
                "count_comments": "4",
                "url_n": "https:\/\/live.staticflickr.com\/65535\/48117182557_5a05f932b9_n.jpg",
                "height_n": 320,
                "width_n": "320"
            },
            {
                "id": "467479413",
                "owner": "49191827@N00",
                "secret": "5f6c309965",
                "server": "65535",
                "farm": 66,
                "title": "restaurant \/ route 66. flagstaff, az. 2007.",
                "ispublic": 1,
                "isfriend": 0,
                "isfamily": 0,
                "count_faves": "83",
                "count_comments": "19",
                "url_n": "https:\/\/live.staticflickr.com\/65535\/467479413_5f6c309965_n.jpg",
                "height_n": 213,
                "width_n": "320"
            },
            {
                "id": "48100309623",
                "owner": "49191827@N00",
                "secret": "635f58f456",
                "server": "65535",
                "farm": 66,
                "title": "benny's garage. boulevard, ca. 2018.",
                "ispublic": 1,
                "isfriend": 0,
                "isfamily": 0,
                "count_faves": "88",
                "count_comments": "4",
                "url_n": "https:\/\/live.staticflickr.com\/65535\/48100309623_635f58f456_n.jpg",
                "height_n": 320,
                "width_n": "320"
            }
        ]
    },
    "stat": "ok"
}